
2015-04-23 12:53:54 000000 --  **** Start logging **** mp_process_batch_send *** level : 8191 **** (5.4) **** /blog/wp-cron.php?doing_wp_cron=1429793633.2643749713897705078125
2015-04-23 12:53:54 000000 --  **** Purged log file **** C:\Inetpub\vhosts\intoxalock.com\httpdocs\blog\wp-content\plugins\mailpress/tmp/MP_Log_0_mp_process_batch_send_20150306.txt
2015-04-23 12:53:54 000000 -- !------------------------------------------------------------------------------------------!
2015-04-23 12:53:54 000000 -- !     Batch Report mail #208  / count : 37 / per_pass : 30 / max_try : 5                   !
2015-04-23 12:53:54 000000 -- !------------------------------------------------------------------------------------------!
2015-04-23 12:53:54 000000 -- !            ! sent       ! processed  ! try        ! pass       ! offset     ! failed     !
2015-04-23 12:53:54 000000 -- !------------------------------------------------------------------------------------------!
2015-04-23 12:53:54 000000 -- ! start      !          0 !          0 !          0 !          1 !          0 !          0 !
2015-04-23 12:53:54 000000 -- ! processing !          0 !         30 !          0 !          1 !          0 !          0 !
2015-04-23 12:53:54 000000 -- !------------------------------------------------------------------------------------------!
2015-04-23 12:53:55 000000 -- MAILPRESS [NOTICE] - Image found : wp-content/plugins/mailpress/mp-content/themes/Intoxalock/images/intoxalock.jpg
2015-04-23 12:53:55 000000 -- MAILPRESS [NOTICE] - Image found : wp-content/plugins/mailpress/mp-content/themes/Intoxalock/images/visibility.png
2015-04-23 12:53:55 000000 -- **** Empty user/password for SMTP connection ****
2015-04-23 12:53:55 000000 -- MAILPRESS [NOTICE] - Disconnecting from intoxalockblog (MP_Batch)
2015-04-23 12:53:55 000000 -- MAILPRESS [NOTICE] - Disconnected (MP_Batch)
2015-04-23 12:54:49 000000 -- MAILPRESS [NOTICE] - Connecting to intoxalockblog (MP_Batch)
2015-04-23 12:54:50 000000 -- MAILPRESS [NOTICE] - Connected (MP_Batch)
2015-04-23 12:54:51 000000 -- !------------------------------------------------------------------------------------------!
2015-04-23 12:54:51 000000 -- ! end        !         30 !         30 !          0 !          1 !         30 !          0 !
2015-04-23 12:54:51 000000 -- !------------------------------------------------------------------------------------------!
2015-04-23 12:54:51 000000 --  **** End   logging **** mp_process_batch_send *** level : 8191 **** status : TRUE 

2015-04-23 12:55:36 000000 --  **** Start logging **** mp_process_batch_send *** level : 8191 **** (5.4) **** /blog/wp-cron.php?doing_wp_cron=1429793734.3841109275817871093750
2015-04-23 12:55:36 000000 -- !------------------------------------------------------------------------------------------!
2015-04-23 12:55:36 000000 -- !     Batch Report mail #208  / count : 37 / per_pass : 30 / max_try : 5                   !
2015-04-23 12:55:36 000000 -- !------------------------------------------------------------------------------------------!
2015-04-23 12:55:36 000000 -- !            ! sent       ! processed  ! try        ! pass       ! offset     ! failed     !
2015-04-23 12:55:36 000000 -- !------------------------------------------------------------------------------------------!
2015-04-23 12:55:36 000000 -- ! start      !         30 !         30 !          0 !          2 !         30 !          0 !
2015-04-23 12:55:36 000000 -- ! processing !         30 !         37 !          0 !          2 !         30 !          0 !
2015-04-23 12:55:36 000000 -- !------------------------------------------------------------------------------------------!
2015-04-23 12:55:36 000000 -- MAILPRESS [NOTICE] - Image found : wp-content/plugins/mailpress/mp-content/themes/Intoxalock/images/intoxalock.jpg
2015-04-23 12:55:36 000000 -- MAILPRESS [NOTICE] - Image found : wp-content/plugins/mailpress/mp-content/themes/Intoxalock/images/visibility.png
2015-04-23 12:55:36 000000 -- **** Empty user/password for SMTP connection ****
2015-04-23 12:55:36 000000 -- MAILPRESS [NOTICE] - Disconnecting from intoxalockblog (MP_Batch)
2015-04-23 12:55:36 000000 -- MAILPRESS [NOTICE] - Disconnected (MP_Batch)
2015-04-23 12:55:44 000000 -- MAILPRESS [NOTICE] - Connecting to intoxalockblog (MP_Batch)
2015-04-23 12:55:45 000000 -- MAILPRESS [NOTICE] - Connected (MP_Batch)
2015-04-23 12:55:46 000000 -- !------------------------------------------------------------------------------------------!
2015-04-23 12:55:46 000000 -- ! end        !         37 !         37 !          0 !          2 !         37 !          0 !
2015-04-23 12:55:46 000000 -- !------------------------------------------------------------------------------------------!
2015-04-23 12:55:46 000000 --  **** End   logging **** mp_process_batch_send *** level : 8191 **** status : TRUE 
